lesson_013/wave.vcd
$date
	Sun Jan 18 15:43:06 2026
$end
$version
	ModelSim Version 2020.1
$end
$timescale
	1ps
$end

$scope module tb_uart_rx $end
$var parameter 32 ! FIFO_DEPTH $end
$var parameter 32 " DATA_WIDTH $end
$var parameter 32 # CLK_PERIOD $end
$var parameter 32 $ BAUD_DIV $end
$var parameter 32 % BAUD_CLK_PERIOD $end
$var parameter 32 & BAUD_CLK__HALF_PERIOD $end
$var reg 1 ' clk_i $end
$var reg 1 ( rst_ni $end
$var reg 16 ) baud_div_i [15:0] $end
$var reg 1 * rx_ren_i $end
$var reg 1 + rx_en_i $end
$var reg 1 , rx_bit_i $end
$var reg 8 - dout_o [7:0] $end
$var reg 1 . empty_o $end
$var reg 1 / full_o $end
$var integer 32 0 tx_data_index $end
$var integer 32 1 rx_data_index $end

$scope task send_byte $end
$var reg 8 2 data [7:0] $end
$upscope $end

$scope task read_and_verify $end
$var reg 8 3 received_data [7:0] $end
$var reg 8 4 expected_data [7:0] $end
$upscope $end

$scope module dut $end
$var parameter 32 5 DATA_WIDTH $end
$var parameter 32 6 FIFO_DEPTH $end
$var parameter 32 7 COUNTER_WIDTH $end
$var wire 1 8 clk_i $end
$var wire 1 9 rst_ni $end
$var wire 1 : baud_div_i [15] $end
$var wire 1 ; baud_div_i [14] $end
$var wire 1 < baud_div_i [13] $end
$var wire 1 = baud_div_i [12] $end
$var wire 1 > baud_div_i [11] $end
$var wire 1 ? baud_div_i [10] $end
$var wire 1 @ baud_div_i [9] $end
$var wire 1 A baud_div_i [8] $end
$var wire 1 B baud_div_i [7] $end
$var wire 1 C baud_div_i [6] $end
$var wire 1 D baud_div_i [5] $end
$var wire 1 E baud_div_i [4] $end
$var wire 1 F baud_div_i [3] $end
$var wire 1 G baud_div_i [2] $end
$var wire 1 H baud_div_i [1] $end
$var wire 1 I baud_div_i [0] $end
$var wire 1 J rx_ren_i $end
$var wire 1 K rx_en_i $end
$var wire 1 L rx_bit_i $end
$var reg 8 M dout_o [7:0] $end
$var reg 1 N empty_o $end
$var reg 1 O full_o $end
$var reg 1 P rx_we $end
$var reg 8 Q rx_data_reg [7:0] $end
$var reg 4 R bit_counter [3:0] $end
$var reg 16 S baud_counter [15:0] $end
$var reg 3 T state [2:0] $end
$var reg 3 U next_state [2:0] $end
$var reg 1 V mid_tick $end
$var reg 1 W end_tick $end

$scope module rx_buffer $end
$var parameter 32 X DATA_WIDTH $end
$var parameter 32 Y FIFO_DEPTH $end
$var parameter 32 Z ADDR_WIDTH $end
$var wire 1 8 clk $end
$var wire 1 [ rst $end
$var wire 1 \ wr_en $end
$var wire 1 J rd_en $end
$var wire 1 ] wdata [7] $end
$var wire 1 ^ wdata [6] $end
$var wire 1 _ wdata [5] $end
$var wire 1 ` wdata [4] $end
$var wire 1 a wdata [3] $end
$var wire 1 b wdata [2] $end
$var wire 1 c wdata [1] $end
$var wire 1 d wdata [0] $end
$var reg 8 e rdata [7:0] $end
$var reg 1 f full $end
$var reg 1 g empty $end
$var reg 4 h write_ptr [3:0] $end
$var reg 4 i read_ptr [3:0] $end
$var reg 1 j wrap_around $end
$upscope $end
$upscope $end
$upscope $end
$enddefinitions $end
#0
$dumpvars
0'
0(
b1101000 )
0*
0+
1,
bx -
x.
x/
bx M
xN
xO
xP
bx Q
bx R
bx S
bx T
bx U
xV
xW
bx e
xf
xg
bx h
bx i
xj
bx 2
bx 3
bx 4
b1000 !
b1000 "
b1010 #
b1101000 $
b10000010000 %
b1000001000 &
b1000 5
b1000 6
b100 7
b1000 X
b1000 Y
b11 Z
b0 0
b0 1
08
09
0I
0H
0G
1F
0E
1D
1C
0B
0A
0@
0?
0>
0=
0<
0;
0:
0J
0K
1L
1[
x\
xd
xc
xb
xa
x`
x_
x^
x]
$end
#5000
1'
18
b0 h
b0 i
b0 T
b0 S
b0 R
b0 Q
0V
0W
0P
0j
0f
1g
0d
0c
0b
0a
0`
0_
0^
0]
1N
0O
0\
0/
1.
b0 U
#10000
0'
08
#15000
1'
18
b1000001 2
0,
0L
1(
1+
19
0[
1K
b1 U
#20000
0'
08
#25000
1'
18
b1 T
#30000
0'
08
#35000
1'
18
b1 S
#40000
0'
08
#45000
1'
18
b10 S
#50000
0'
08
#55000
1'
18
b11 S
#60000
0'
08
#65000
1'
18
b100 S
#70000
0'
08
#75000
1'
18
b101 S
#80000
0'
08
#85000
1'
18
b110 S
#90000
0'
08
#95000
1'
18
b111 S
#100000
0'
08
#105000
1'
18
b1000 S
#110000
0'
08
#115000
1'
18
b1001 S
#120000
0'
08
#125000
1'
18
b1010 S
#130000
0'
08
#135000
1'
18
b1011 S
#140000
0'
08
#145000
1'
18
b1100 S
#150000
0'
08
#155000
1'
18
b1101 S
#160000
0'
08
#165000
1'
18
b1110 S
#170000
0'
08
#175000
1'
18
b1111 S
#180000
0'
08
#185000
1'
18
b10000 S
#190000
0'
08
#195000
1'
18
b10001 S
#200000
0'
08
#205000
1'
18
b10010 S
#210000
0'
08
#215000
1'
18
b10011 S
#220000
0'
08
#225000
1'
18
b10100 S
#230000
0'
08
#235000
1'
18
b10101 S
#240000
0'
08
#245000
1'
18
b10110 S
#250000
0'
08
#255000
1'
18
b10111 S
#260000
0'
08
#265000
1'
18
b11000 S
#270000
0'
08
#275000
1'
18
b11001 S
#280000
0'
08
#285000
1'
18
b11010 S
#290000
0'
08
#295000
1'
18
b11011 S
#300000
0'
08
#305000
1'
18
b11100 S
#310000
0'
08
#315000
1'
18
b11101 S
#320000
0'
08
#325000
1'
18
b11110 S
#330000
0'
08
#335000
1'
18
b11111 S
#340000
0'
08
#345000
1'
18
b100000 S
#350000
0'
08
#355000
1'
18
b100001 S
#360000
0'
08
#365000
1'
18
b100010 S
#370000
0'
08
#375000
1'
18
b100011 S
#380000
0'
08
#385000
1'
18
b100100 S
#390000
0'
08
#395000
1'
18
b100101 S
#400000
0'
08
#405000
1'
18
b100110 S
#410000
0'
08
#415000
1'
18
b100111 S
#420000
0'
08
#425000
1'
18
b101000 S
#430000
0'
08
#435000
1'
18
b101001 S
#440000
0'
08
#445000
1'
18
b101010 S
#450000
0'
08
#455000
1'
18
b101011 S
#460000
0'
08
#465000
1'
18
b101100 S
#470000
0'
08
#475000
1'
18
b101101 S
#480000
0'
08
#485000
1'
18
b101110 S
#490000
0'
08
#495000
1'
18
b101111 S
#500000
0'
08
#505000
1'
18
b110000 S
#510000
0'
08
#515000
1'
18
b110001 S
#520000
0'
08
#525000
1'
18
b110010 S
#530000
0'
08
#535000
1'
18
b110011 S
1V
b10 U
#540000
0'
08
#545000
1'
18
b110100 S
0V
b1 U
b10 T
b10 U
#550000
0'
08
#555000
1'
18
b110101 S
#560000
0'
08
#565000
1'
18
b110110 S
#570000
0'
08
#575000
1'
18
b110111 S
#580000
0'
08
#585000
1'
18
b111000 S
#590000
0'
08
#595000
1'
18
b111001 S
#600000
0'
08
#605000
1'
18
b111010 S
#610000
0'
08
#615000
1'
18
b111011 S
#620000
0'
08
#625000
1'
18
b111100 S
#630000
0'
08
#635000
1'
18
b111101 S
#640000
0'
08
#645000
1'
18
b111110 S
#650000
0'
08
#655000
1'
18
b111111 S
#660000
0'
08
#665000
1'
18
b1000000 S
#670000
0'
08
#675000
1'
18
b1000001 S
#680000
0'
08
#685000
1'
18
b1000010 S
#690000
0'
08
#695000
1'
18
b1000011 S
#700000
0'
08
#705000
1'
18
b1000100 S
#710000
0'
08
#715000
1'
18
b1000101 S
#720000
0'
08
#725000
1'
18
b1000110 S
#730000
0'
08
#735000
1'
18
b1000111 S
#740000
0'
08
#745000
1'
18
b1001000 S
#750000
0'
08
#755000
1'
18
b1001001 S
#760000
0'
08
#765000
1'
18
b1001010 S
#770000
0'
08
#775000
1'
18
b1001011 S
#780000
0'
08
#785000
1'
18
b1001100 S
#790000
0'
08
#795000
1'
18
b1001101 S
#800000
0'
08
#805000
1'
18
b1001110 S
#810000
0'
08
#815000
1'
18
b1001111 S
#820000
0'
08
#825000
1'
18
b1010000 S
#830000
0'
08
#835000
1'
18
b1010001 S
#840000
0'
08
#845000
1'
18
b1010010 S
#850000
0'
08
#855000
1'
18
b1010011 S
#860000
0'
08
#865000
1'
18
b1010100 S
#870000
0'
08
#875000
1'
18
b1010101 S
#880000
0'
08
#885000
1'
18
b1010110 S
#890000
0'
08
#895000
1'
18
b1010111 S
#900000
0'
08
#905000
1'
18
b1011000 S
#910000
0'
08
#915000
1'
18
b1011001 S
#920000
0'
08
#925000
1'
18
b1011010 S
#930000
0'
08
#935000
1'
18
b1011011 S
#940000
0'
08
#945000
1'
18
b1011100 S
#950000
0'
08
#955000
1'
18
b1011101 S
#960000
0'
08
#965000
1'
18
b1011110 S
#970000
0'
08
#975000
1'
18
b1011111 S
#980000
0'
08
#985000
1'
18
b1100000 S
#990000
0'
08
#995000
1'
18
b1100001 S
#1000000
0'
08
#1005000
1'
18
b1100010 S
#1010000
0'
08
#1015000
1'
18
b1100011 S
#1020000
0'
08
#1025000
1'
18
b1100100 S
#1030000
0'
08
#1035000
1'
18
b1100101 S
#1040000
0'
08
#1045000
1'
18
b1100110 S
#1050000
0'
08
#1055000
1,
1'
1L
18
b1100111 S
1W
#1060000
0'
08
#1065000
1'
18
b0 S
0W
#1070000
0'
08
#1075000
1'
18
b1 S
#1080000
0'
08
#1085000
1'
18
b10 S
#1090000
0'
08
#1095000
1'
18
b11 S
#1100000
0'
08
#1105000
1'
18
b100 S
#1110000
0'
08
#1115000
1'
18
b101 S
#1120000
0'
08
#1125000
1'
18
b110 S
#1130000
0'
08
#1135000
1'
18
b111 S
#1140000
0'
08
#1145000
1'
18
b1000 S
#1150000
0'
08
#1155000
1'
18
b1001 S
#1160000
0'
08
#1165000
1'
18
b1010 S
#1170000
0'
08
#1175000
1'
18
b1011 S
#1180000
0'
08
#1185000
1'
18
b1100 S
#1190000
0'
08
#1195000
1'
18
b1101 S
#1200000
0'
08
#1205000
1'
18
b1110 S
#1210000
0'
08
#1215000
1'
18
b1111 S
#1220000
0'
08
#1225000
1'
18
b10000 S
#1230000
0'
08
#1235000
1'
18
b10001 S
#1240000
0'
08
#1245000
1'
18
b10010 S
#1250000
0'
08
#1255000
1'
18
b10011 S
#1260000
0'
08
#1265000
1'
18
b10100 S
#1270000
0'
08
#1275000
1'
18
b10101 S
#1280000
0'
08
#1285000
1'
18
b10110 S
#1290000
0'
08
#1295000
1'
18
b10111 S
#1300000
0'
08
#1305000
1'
18
b11000 S
#1310000
0'
08
#1315000
1'
18
b11001 S
#1320000
0'
08
#1325000
1'
18
b11010 S
#1330000
0'
08
#1335000
1'
18
b11011 S
#1340000
0'
08
#1345000
1'
18
b11100 S
#1350000
0'
08
#1355000
1'
18
b11101 S
#1360000
0'
08
#1365000
1'
18
b11110 S
#1370000
0'
08
#1375000
1'
18
b11111 S
#1380000
0'
08
#1385000
1'
18
b100000 S
#1390000
0'
08
#1395000
1'
18
b100001 S
#1400000
0'
08
#1405000
1'
18
b100010 S
#1410000
0'
08
#1415000
1'
18
b100011 S
#1420000
0'
08
#1425000
1'
18
b100100 S
#1430000
0'
08
#1435000
1'
18
b100101 S
#1440000
0'
08
#1445000
1'
18
b100110 S
#1450000
0'
08
#1455000
1'
18
b100111 S
#1460000
0'
08
#1465000
1'
18
b101000 S
#1470000
0'
08
#1475000
1'
18
b101001 S
#1480000
0'
08
#1485000
1'
18
b101010 S
#1490000
0'
08
#1495000
1'
18
b101011 S
#1500000
0'
08
#1505000
1'
18
b101100 S
#1510000
0'
08
#1515000
1'
18
b101101 S
#1520000
0'
08
#1525000
1'
18
b101110 S
#1530000
0'
08
#1535000
1'
18
b101111 S
#1540000
0'
08
#1545000
1'
18
b110000 S
#1550000
0'
08
#1555000
1'
18
b110001 S
#1560000
0'
08
#1565000
1'
18
b110010 S
#1570000
0'
08
#1575000
1'
18
b110011 S
1V
#1580000
0'
08
#1585000
1'
18
b110100 S
0V
b1 Q
b1 R
1d
#1590000
0'
08
#1595000
1'
18
b110101 S
#1600000
0'
08
#1605000
1'
18
b110110 S
#1610000
0'
08
#1615000
1'
18
b110111 S
#1620000
0'
08
#1625000
1'
18
b111000 S
#1630000
0'
08
#1635000
1'
18
b111001 S
#1640000
0'
08
#1645000
1'
18
b111010 S
#1650000
0'
08
#1655000
1'
18
b111011 S
#1660000
0'
08
#1665000
1'
18
b111100 S
#1670000
0'
08
#1675000
1'
18
b111101 S
#1680000
0'
08
#1685000
1'
18
b111110 S
#1690000
0'
08
#1695000
1'
18
b111111 S
#1700000
0'
08
#1705000
1'
18
b1000000 S
#1710000
0'
08
#1715000
1'
18
b1000001 S
#1720000
0'
08
#1725000
1'
18
b1000010 S
#1730000
0'
08
#1735000
1'
18
b1000011 S
#1740000
0'
08
#1745000
1'
18
b1000100 S
#1750000
0'
08
#1755000
1'
18
b1000101 S
#1760000
0'
08
#1765000
1'
18
b1000110 S
#1770000
0'
08
#1775000
1'
18
b1000111 S
#1780000
0'
08
#1785000
1'
18
b1001000 S
#1790000
0'
08
#1795000
1'
18
b1001001 S
#1800000
0'
08
#1805000
1'
18
b1001010 S
#1810000
0'
08
#1815000
1'
18
b1001011 S
#1820000
0'
08
#1825000
1'
18
b1001100 S
#1830000
0'
08
#1835000
1'
18
b1001101 S
#1840000
0'
08
#1845000
1'
18
b1001110 S
#1850000
0'
08
#1855000
1'
18
b1001111 S
#1860000
0'
08
#1865000
1'
18
b1010000 S
#1870000
0'
08
#1875000
1'
18
b1010001 S
#1880000
0'
08
#1885000
1'
18
b1010010 S
#1890000
0'
08
#1895000
1'
18
b1010011 S
#1900000
0'
08
#1905000
1'
18
b1010100 S
#1910000
0'
08
#1915000
1'
18
b1010101 S
#1920000
0'
08
#1925000
1'
18
b1010110 S
#1930000
0'
08
#1935000
1'
18
b1010111 S
#1940000
0'
08
#1945000
1'
18
b1011000 S
#1950000
0'
08
#1955000
1'
18
b1011001 S
#1960000
0'
08
#1965000
1'
18
b1011010 S
#1970000
0'
08
#1975000
1'
18
b1011011 S
#1980000
0'
08
#1985000
1'
18
b1011100 S
#1990000
0'
08
#1995000
1'
18
b1011101 S
#2000000
0'
08
#2005000
1'
18
b1011110 S
#2010000
0'
08
#2015000
1'
18
b1011111 S
#2020000
0'
08
#2025000
1'
18
b1100000 S
#2030000
0'
08
#2035000
1'
18
b1100001 S
#2040000
0'
08
#2045000
1'
18
b1100010 S
#2050000
0'
08
#2055000
1'
18
b1100011 S
#2060000
0'
08
#2065000
1'
18
b1100100 S
#2070000
0'
08
#2075000
1'
18
b1100101 S
#2080000
0'
08
#2085000
1'
18
b1100110 S
#2090000
0'
08
#2095000
0,
1'
0L
18
b1100111 S
1W
#2100000
0'
08
#2105000
1'
18
b0 S
0W
#2110000
0'
08
#2115000
1'
18
b1 S
#2120000
0'
08
#2125000
1'
18
b10 S
#2130000
0'
08
#2135000
1'
18
b11 S
#2140000
0'
08
#2145000
1'
18
b100 S
#2150000
0'
08
#2155000
1'
18
b101 S
#2160000
0'
08
#2165000
1'
18
b110 S
#2170000
0'
08
#2175000
1'
18
b111 S
#2180000
0'
08
#2185000
1'
18
b1000 S
#2190000
0'
08
#2195000
1'
18
b1001 S
#2200000
0'
08
#2205000
1'
18
b1010 S
#2210000
0'
08
#2215000
1'
18
b1011 S
#2220000
0'
08
#2225000
1'
18
b1100 S
#2230000
0'
08
#2235000
1'
18
b1101 S
#2240000
0'
08
#2245000
1'
18
b1110 S
#2250000
0'
08
#2255000
1'
18
b1111 S
#2260000
0'
08
#2265000
1'
18
b10000 S
#2270000
0'
08
#2275000
1'
18
b10001 S
#2280000
0'
08
#2285000
1'
18
b10010 S
#2290000
0'
08
#2295000
1'
18
b10011 S
#2300000
0'
08
#2305000
1'
18
b10100 S
#2310000
0'
08
#2315000
1'
18
b10101 S
#2320000
0'
08
#2325000
1'
18
b10110 S
#2330000
0'
08
#2335000
1'
18
b10111 S
#2340000
0'
08
#2345000
1'
18
b11000 S
#2350000
0'
08
#2355000
1'
18
b11001 S
#2360000
0'
08
#2365000
1'
18
b11010 S
#2370000
0'
08
#2375000
1'
18
b11011 S
#2380000
0'
08
#2385000
1'
18
b11100 S
#2390000
0'
08
#2395000
1'
18
b11101 S
#2400000
0'
08
#2405000
1'
18
b11110 S
#2410000
0'
08
#2415000
1'
18
b11111 S
#2420000
0'
08
#2425000
1'
18
b100000 S
#2430000
0'
08
#2435000
1'
18
b100001 S
#2440000
0'
08
#2445000
1'
18
b100010 S
#2450000
0'
08
#2455000
1'
18
b100011 S
#2460000
0'
08
#2465000
1'
18
b100100 S
#2470000
0'
08
#2475000
1'
18
b100101 S
#2480000
0'
08
#2485000
1'
18
b100110 S
#2490000
0'
08
#2495000
1'
18
b100111 S
#2500000
0'
08
#2505000
1'
18
b101000 S
#2510000
0'
08
#2515000
1'
18
b101001 S
#2520000
0'
08
#2525000
1'
18
b101010 S
#2530000
0'
08
#2535000
1'
18
b101011 S
#2540000
0'
08
#2545000
1'
18
b101100 S
#2550000
0'
08
#2555000
1'
18
b101101 S
#2560000
0'
08
#2565000
1'
18
b101110 S
#2570000
0'
08
#2575000
1'
18
b101111 S
#2580000
0'
08
#2585000
1'
18
b110000 S
#2590000
0'
08
#2595000
1'
18
b110001 S
#2600000
0'
08
#2605000
1'
18
b110010 S
#2610000
0'
08
#2615000
1'
18
b110011 S
1V
#2620000
0'
08
#2625000
1'
18
b110100 S
0V
b10 R
#2630000
0'
08
#2635000
1'
18
b110101 S
#2640000
0'
08
#2645000
1'
18
b110110 S
#2650000
0'
08
#2655000
1'
18
b110111 S
#2660000
0'
08
#2665000
1'
18
b111000 S
#2670000
0'
08
#2675000
1'
18
b111001 S
#2680000
0'
08
#2685000
1'
18
b111010 S
#2690000
0'
08
#2695000
1'
18
b111011 S
#2700000
0'
08
#2705000
1'
18
b111100 S
#2710000
0'
08
#2715000
1'
18
b111101 S
#2720000
0'
08
#2725000
1'
18
b111110 S
#2730000
0'
08
#2735000
1'
18
b111111 S
#2740000
0'
08
#2745000
1'
18
b1000000 S
#2750000
0'
08
#2755000
1'
18
b1000001 S
#2760000
0'
08
#2765000
1'
18
b1000010 S
#2770000
0'
08
#2775000
1'
18
b1000011 S
#2780000
0'
08
#2785000
1'
18
b1000100 S
#2790000
0'
08
#2795000
1'
18
b1000101 S
#2800000
0'
08
#2805000
1'
18
b1000110 S
#2810000
0'
08
#2815000
1'
18
b1000111 S
#2820000
0'
08
#2825000
1'
18
b1001000 S
#2830000
0'
08
#2835000
1'
18
b1001001 S
#2840000
0'
08
#2845000
1'
18
b1001010 S
#2850000
0'
08
#2855000
1'
18
b1001011 S
#2860000
0'
08
#2865000
1'
18
b1001100 S
#2870000
0'
08
#2875000
1'
18
b1001101 S
#2880000
0'
08
#2885000
1'
18
b1001110 S
#2890000
0'
08
#2895000
1'
18
b1001111 S
#2900000
0'
08
#2905000
1'
18
b1010000 S
#2910000
0'
08
#2915000
1'
18
b1010001 S
#2920000
0'
08
#2925000
1'
18
b1010010 S
#2930000
0'
08
#2935000
1'
18
b1010011 S
#2940000
0'
08
#2945000
1'
18
b1010100 S
#2950000
0'
08
#2955000
1'
18
b1010101 S
#2960000
0'
08
#2965000
1'
18
b1010110 S
#2970000
0'
08
#2975000
1'
18
b1010111 S
#2980000
0'
08
#2985000
1'
18
b1011000 S
#2990000
0'
08
#2995000
1'
18
b1011001 S
#3000000
0'
08
#3005000
1'
18
b1011010 S
#3010000
0'
08
#3015000
1'
18
b1011011 S
#3020000
0'
08
#3025000
1'
18
b1011100 S
#3030000
0'
08
#3035000
1'
18
b1011101 S
#3040000
0'
08
#3045000
1'
18
b1011110 S
#3050000
0'
08
#3055000
1'
18
b1011111 S
#3060000
0'
08
#3065000
1'
18
b1100000 S
#3070000
0'
08
#3075000
1'
18
b1100001 S
#3080000
0'
08
#3085000
1'
18
b1100010 S
#3090000
0'
08
#3095000
1'
18
b1100011 S
#3100000
0'
08
#3105000
1'
18
b1100100 S
#3110000
0'
08
#3115000
1'
18
b1100101 S
#3120000
0'
08
#3125000
1'
18
b1100110 S
#3130000
0'
08
#3135000
1'
18
b1100111 S
1W
#3140000
0'
08
#3145000
1'
18
b0 S
0W
#3150000
0'
08
#3155000
1'
18
b1 S
#3160000
0'
08
#3165000
1'
18
b10 S
#3170000
0'
08
#3175000
1'
18
b11 S
#3180000
0'
08
#3185000
1'
18
b100 S
#3190000
0'
08
#3195000
1'
18
b101 S
#3200000
0'
08
#3205000
1'
18
b110 S
#3210000
0'
08
#3215000
1'
18
b111 S
#3220000
0'
08
#3225000
1'
18
b1000 S
#3230000
0'
08
#3235000
1'
18
b1001 S
#3240000
0'
08
#3245000
1'
18
b1010 S
#3250000
0'
08
#3255000
1'
18
b1011 S
#3260000
0'
08
#3265000
1'
18
b1100 S
#3270000
0'
08
#3275000
1'
18
b1101 S
#3280000
0'
08
#3285000
1'
18
b1110 S
#3290000
0'
08
#3295000
1'
18
b1111 S
#3300000
0'
08
#3305000
1'
18
b10000 S
#3310000
0'
08
#3315000
1'
18
b10001 S
#3320000
0'
08
#3325000
1'
18
b10010 S
#3330000
0'
08
#3335000
1'
18
b10011 S
#3340000
0'
08
#3345000
1'
18
b10100 S
#3350000
0'
08
#3355000
1'
18
b10101 S
#3360000
0'
08
#3365000
1'
18
b10110 S
#3370000
0'
08
#3375000
1'
18
b10111 S
#3380000
0'
08
#3385000
1'
18
b11000 S
#3390000
0'
08
#3395000
1'
18
b11001 S
#3400000
0'
08
#3405000
1'
18
b11010 S
#3410000
0'
08
#3415000
1'
18
b11011 S
#3420000
0'
08
#3425000
1'
18
b11100 S
#3430000
0'
08
#3435000
1'
18
b11101 S
#3440000
0'
08
#3445000
1'
18
b11110 S
#3450000
0'
08
#3455000
1'
18
b11111 S
#3460000
0'
08
#3465000
1'
18
b100000 S
#3470000
0'
08
#3475000
1'
18
b100001 S
#3480000
0'
08
#3485000
1'
18
b100010 S
#3490000
0'
08
#3495000
1'
18
b100011 S
#3500000
0'
08
#3505000
1'
18
b100100 S
#3510000
0'
08
#3515000
1'
18
b100101 S
#3520000
0'
08
#3525000
1'
18
b100110 S
#3530000
0'
08
#3535000
1'
18
b100111 S
#3540000
0'
08
#3545000
1'
18
b101000 S
#3550000
0'
08
#3555000
1'
18
b101001 S
#3560000
0'
08
#3565000
1'
18
b101010 S
#3570000
0'
08
#3575000
1'
18
b101011 S
#3580000
0'
08
#3585000
1'
18
b101100 S
#3590000
0'
08
#3595000
1'
18
b101101 S
#3600000
0'
08
#3605000
1'
18
b101110 S
#3610000
0'
08
#3615000
1'
18
b101111 S
#3620000
0'
08
#3625000
1'
18
b110000 S
#3630000
0'
08
#3635000
1'
18
b110001 S
#3640000
0'
08
#3645000
1'
18
b110010 S
#3650000
0'
08
#3655000
1'
18
b110011 S
1V
#3660000
0'
08
#3665000
1'
18
b110100 S
0V
b11 R
#3670000
0'
08
#3675000
1'
18
b110101 S
#3680000
0'
08
#3685000
1'
18
b110110 S
#3690000
0'
08
#3695000
1'
18
b110111 S
#3700000
0'
08
#3705000
1'
18
b111000 S
#3710000
0'
08
#3715000
1'
18
b111001 S
#3720000
0'
08
#3725000
1'
18
b111010 S
#3730000
0'
08
#3735000
1'
18
b111011 S
#3740000
0'
08
#3745000
1'
18
b111100 S
#3750000
0'
08
#3755000
1'
18
b111101 S
#3760000
0'
08
#3765000
1'
18
b111110 S
#3770000
0'
08
#3775000
1'
18
b111111 S
#3780000
0'
08
#3785000
1'
18
b1000000 S
#3790000
0'
08
#3795000
1'
18
b1000001 S
#3800000
0'
08
#3805000
1'
18
b1000010 S
#3810000
0'
08
#3815000
1'
18
b1000011 S
#3820000
0'
08
#3825000
1'
18
b1000100 S
#3830000
0'
08
#3835000
1'
18
b1000101 S
#3840000
0'
08
#3845000
1'
18
b1000110 S
#3850000
0'
08
#3855000
1'
18
b1000111 S
#3860000
0'
08
#3865000
1'
18
b1001000 S
#3870000
0'
08
#3875000
1'
18
b1001001 S
#3880000
0'
08
#3885000
1'
18
b1001010 S
#3890000
0'
08
#3895000
1'
18
b1001011 S
#3900000
0'
08
#3905000
1'
18
b1001100 S
#3910000
0'
08
#3915000
1'
18
b1001101 S
#3920000
0'
08
#3925000
1'
18
b1001110 S
#3930000
0'
08
#3935000
1'
18
b1001111 S
#3940000
0'
08
#3945000
1'
18
b1010000 S
#3950000
0'
08
#3955000
1'
18
b1010001 S
#3960000
0'
08
#3965000
1'
18
b1010010 S
#3970000
0'
08
#3975000
1'
18
b1010011 S
#3980000
0'
08
#3985000
1'
18
b1010100 S
#3990000
0'
08
#3995000
1'
18
b1010101 S
#4000000
0'
08
#4005000
1'
18
b1010110 S
#4010000
0'
08
#4015000
1'
18
b1010111 S
#4020000
0'
08
#4025000
1'
18
b1011000 S
#4030000
0'
08
#4035000
1'
18
b1011001 S
#4040000
0'
08
#4045000
1'
18
b1011010 S
#4050000
0'
08
#4055000
1'
18
b1011011 S
#4060000
0'
08
#4065000
1'
18
b1011100 S
#4070000
0'
08
#4075000
1'
18
b1011101 S
#4080000
0'
08
#4085000
1'
18
b1011110 S
#4090000
0'
08
#4095000
1'
18
b1011111 S
#4100000
0'
08
#4105000
1'
18
b1100000 S
#4110000
0'
08
#4115000
1'
18
b1100001 S
#4120000
0'
08
#4125000
1'
18
b1100010 S
#4130000
0'
08
#4135000
1'
18
b1100011 S
#4140000
0'
08
#4145000
1'
18
b1100100 S
#4150000
0'
08
#4155000
1'
18
b1100101 S
#4160000
0'
08
#4165000
1'
18
b1100110 S
#4170000
0'
08
#4175000
1'
18
b1100111 S
1W
#4180000
0'
08
#4185000
1'
18
b0 S
0W
#4190000
0'
08
#4195000
1'
18
b1 S
#4200000
0'
08
#4205000
1'
18
b10 S
#4210000
0'
08
#4215000
1'
18
b11 S
#4220000
0'
08
#4225000
1'
18
b100 S
#4230000
0'
08
#4235000
1'
18
b101 S
#4240000
0'
08
#4245000
1'
18
b110 S
#4250000
0'
08
#4255000
1'
18
b111 S
#4260000
0'
08
#4265000
1'
18
b1000 S
#4270000
0'
08
#4275000
1'
18
b1001 S
#4280000
0'
08
#4285000
1'
18
b1010 S
#4290000
0'
08
#4295000
1'
18
b1011 S
#4300000
0'
08
#4305000
1'
18
b1100 S
#4310000
0'
08
#4315000
1'
18
b1101 S
#4320000
0'
08
#4325000
1'
18
b1110 S
#4330000
0'
08
#4335000
1'
18
b1111 S
#4340000
0'
08
#4345000
1'
18
b10000 S
#4350000
0'
08
#4355000
1'
18
b10001 S
#4360000
0'
08
#4365000
1'
18
b10010 S
#4370000
0'
08
#4375000
1'
18
b10011 S
#4380000
0'
08
#4385000
1'
18
b10100 S
#4390000
0'
08
#4395000
1'
18
b10101 S
#4400000
0'
08
#4405000
1'
18
b10110 S
#4410000
0'
08
#4415000
1'
18
b10111 S
#4420000
0'
08
#4425000
1'
18
b11000 S
#4430000
0'
08
#4435000
1'
18
b11001 S
#4440000
0'
08
#4445000
1'
18
b11010 S
#4450000
0'
08
#4455000
1'
18
b11011 S
#4460000
0'
08
#4465000
1'
18
b11100 S
#4470000
0'
08
#4475000
1'
18
b11101 S
#4480000
0'
08
#4485000
1'
18
b11110 S
#4490000
0'
08
#4495000
1'
18
b11111 S
#4500000
0'
08
#4505000
1'
18
b100000 S
#4510000
0'
08
#4515000
1'
18
b100001 S
#4520000
0'
08
#4525000
1'
18
b100010 S
#4530000
0'
08
#4535000
1'
18
b100011 S
#4540000
0'
08
#4545000
1'
18
b100100 S
#4550000
0'
08
#4555000
1'
18
b100101 S
#4560000
0'
08
#4565000
1'
18
b100110 S
#4570000
0'
08
#4575000
1'
18
b100111 S
#4580000
0'
08
#4585000
1'
18
b101000 S
#4590000
0'
08
#4595000
1'
18
b101001 S
#4600000
0'
08
#4605000
1'
18
b101010 S
#4610000
0'
08
#4615000
1'
18
b101011 S
#4620000
0'
08
#4625000
1'
18
b101100 S
#4630000
0'
08
#4635000
1'
18
b101101 S
#4640000
0'
08
#4645000
1'
18
b101110 S
#4650000
0'
08
#4655000
1'
18
b101111 S
#4660000
0'
08
#4665000
1'
18
b110000 S
#4670000
0'
08
#4675000
1'
18
b110001 S
#4680000
0'
08
#4685000
1'
18
b110010 S
#4690000
0'
08
#4695000
1'
18
b110011 S
1V
#4700000
0'
08
#4705000
1'
18
b110100 S
0V
b100 R
#4710000
0'
08
#4715000
1'
18
b110101 S
#4720000
0'
08
#4725000
1'
18
b110110 S
#4730000
0'
08
#4735000
1'
18
b110111 S
#4740000
0'
08
#4745000
1'
18
b111000 S
#4750000
0'
08
#4755000
1'
18
b111001 S
#4760000
0'
08
#4765000
1'
18
b111010 S
#4770000
0'
08
#4775000
1'
18
b111011 S
#4780000
0'
08
#4785000
1'
18
b111100 S
#4790000
0'
08
#4795000
1'
18
b111101 S
#4800000
0'
08
#4805000
1'
18
b111110 S
#4810000
0'
08
#4815000
1'
18
b111111 S
#4820000
0'
08
#4825000
1'
18
b1000000 S
#4830000
0'
08
#4835000
1'
18
b1000001 S
#4840000
0'
08
#4845000
1'
18
b1000010 S
#4850000
0'
08
#4855000
1'
18
b1000011 S
#4860000
0'
08
#4865000
1'
18
b1000100 S
#4870000
0'
08
#4875000
1'
18
b1000101 S
#4880000
0'
08
#4885000
1'
18
b1000110 S
#4890000
0'
08
#4895000
1'
18
b1000111 S
#4900000
0'
08
#4905000
1'
18
b1001000 S
#4910000
0'
08
#4915000
1'
18
b1001001 S
#4920000
0'
08
#4925000
1'
18
b1001010 S
#4930000
0'
08
#4935000
1'
18
b1001011 S
#4940000
0'
08
#4945000
1'
18
b1001100 S
#4950000
0'
08
#4955000
1'
18
b1001101 S
#4960000
0'
08
#4965000
1'
18
b1001110 S
