lesson_010/wave.vcd
$date
	Sat Jan 17 17:54:05 2026
$end
$version
	ModelSim Version 2020.1
$end
$timescale
	1ps
$end

$scope module tb_uart_tx $end
$var parameter 32 ! CLK_PERIOD $end
$var reg 1 " clk_i $end
$var reg 4 # bit_counter [3:0] $end
$var reg 10 $ expected_frame [9:0] $end

$scope task write_fifo $end
$var reg 8 % data [7:0] $end
$upscope $end

$scope task verify_tx_bit $end
$var reg 1 & expected_bit $end
$var integer 32 ' bit_index $end
$upscope $end

$scope module uart_if $end
$var parameter 32 ( BAUD_DIV $end
$var wire 1 ) clk_i $end
$var reg 1 * rst_ni $end
$var reg 16 + baud_div_i [15:0] $end
$var reg 1 , tx_wen_i $end
$var reg 1 - tx_en_i $end
$var reg 8 . din_i [7:0] $end
$var reg 1 / empty_o $end
$var reg 1 0 full_o $end
$var reg 1 1 tx_bit_o $end
$upscope $end

$scope module dut $end
$var wire 1 2 clk_i $end
$var reg 1 3 rd_en $end
$var reg 8 4 data [7:0] $end
$var reg 8 5 data_q [7:0] $end
$var reg 4 6 bit_counter [3:0] $end
$var reg 16 7 baud_counter [15:0] $end
$var reg 2 8 state [1:0] $end
$var reg 2 9 nextstate [1:0] $end
$upscope $end

$scope module uart_if $end
$var wire 1 ) clk_i $end
$upscope $end

$scope module dut $end

$scope module uut $end
$var parameter 32 : DATA_WIDTH $end
$var parameter 32 ; FIFO_DEPTH $end
$var parameter 32 < ADDR_WIDTH $end
$var wire 1 2 clk $end
$var wire 1 = rst $end
$var wire 1 > wr_en $end
$var wire 1 ? rd_en $end
$var wire 1 @ wdata [7] $end
$var wire 1 A wdata [6] $end
$var wire 1 B wdata [5] $end
$var wire 1 C wdata [4] $end
$var wire 1 D wdata [3] $end
$var wire 1 E wdata [2] $end
$var wire 1 F wdata [1] $end
$var wire 1 G wdata [0] $end
$var reg 8 H rdata [7:0] $end
$var reg 1 I full $end
$var reg 1 J empty $end
$var reg 5 K write_ptr [4:0] $end
$var reg 5 L read_ptr [4:0] $end
$var reg 1 M wrap_around $end
$upscope $end
$upscope $end
$upscope $end

$scope begin uart_pkg $end
$var parameter 32 N DATA_WIDTH $end
$var parameter 32 O FIFO_DEPTH $end
$var parameter 32 P CLK_PERIOD $end
$var parameter 32 Q BAUD_DIV $end
$var parameter 32 R BAUD_CLK_PERIOD $end
$upscope $end
$enddefinitions $end
#0
$dumpvars
0"
0*
b1101000 +
0,
0-
b0 .
x/
x0
x1
bx #
bx $
03
bx 4
bx 5
bx 6
bx 7
bx 8
bx 9
bx H
xI
xJ
bx K
bx L
xM
bx %
x&
b1000 N
b10000 O
b1010 P
b1101000 Q
b10000010000 R
b1010 !
b1101000 (
b1000 :
b10000 ;
b100 <
b0 '
0)
02
1=
0>
0?
0G
0F
0E
0D
0C
0B
0A
0@
$end
#5000
1"
1)
12
b0 K
b0 L
b0 8
b0 6
b0 7
b0 5
0M
0I
1J
1/
00
b0 9
11
#10000
0"
0)
02
#15000
1"
1)
12
b1000001 %
1,
b1000001 .
1>
1G
1A
1*
0=
#20000
0"
0)
02
#25000
1"
1)
12
0,
0>
b1 K
0J
0/
#30000
0"
0)
02
#35000
1"
1)
12
b1000010 %
1,
b1000010 .
1>
0G
1F
#40000
0"
0)
02
#45000
1"
1)
12
0,
0>
b10 K
#50000
0"
0)
02
#55000
1"
1)
12
b1000011 %
1,
b1000011 .
1>
1G
#60000
0"
0)
02
#65000
1"
1)
12
0,
0>
b11 K
#70000
0"
0)
02
#75000
1"
1)
12
b1010 %
1,
b1010 .
1>
0G
1D
0A
#80000
0"
0)
02
#85000
1"
1)
12
0,
0>
b100 K
#90000
0"
0)
02
#95000
1"
1)
12
1-
b1 9
13
1?
#100000
0"
0)
02
#105000
1"
1)
12
b1010000010 $
0&
b1000001 H
b1 L
b1 8
b1000001 4
03
01
0?
#110000
0"
0)
02
b1 #
#115000
1"
1)
12
b1 7
#120000
0"
0)
02
#125000
1"
1)
12
b10 7
#130000
0"
0)
02
#135000
1"
1)
12
b11 7
#140000
0"
0)
02
#145000
1"
1)
12
b100 7
#150000
0"
0)
02
#155000
1"
1)
12
b101 7
#160000
0"
0)
02
#165000
1"
1)
12
b110 7
#170000
0"
0)
02
#175000
1"
1)
12
b111 7
#180000
0"
0)
02
#185000
1"
1)
12
b1000 7
#190000
0"
0)
02
#195000
1"
1)
12
b1001 7
#200000
0"
0)
02
#205000
1"
1)
12
b1010 7
#210000
0"
0)
02
#215000
1"
1)
12
b1011 7
#220000
0"
0)
02
#225000
1"
1)
12
b1100 7
#230000
0"
0)
02
#235000
1"
1)
12
b1101 7
#240000
0"
0)
02
#245000
1"
1)
12
b1110 7
#250000
0"
0)
02
#255000
1"
1)
12
b1111 7
#260000
0"
0)
02
#265000
1"
1)
12
b10000 7
#270000
0"
0)
02
#275000
1"
1)
12
b10001 7
#280000
0"
0)
02
#285000
1"
1)
12
b10010 7
#290000
0"
0)
02
#295000
1"
1)
12
b10011 7
#300000
0"
0)
02
#305000
1"
1)
12
b10100 7
#310000
0"
0)
02
#315000
1"
1)
12
b10101 7
#320000
0"
0)
02
#325000
1"
1)
12
b10110 7
#330000
0"
0)
02
#335000
1"
1)
12
b10111 7
#340000
0"
0)
02
#345000
1"
1)
12
b11000 7
#350000
0"
0)
02
#355000
1"
1)
12
b11001 7
#360000
0"
0)
02
#365000
1"
1)
12
b11010 7
#370000
0"
0)
02
#375000
1"
1)
12
b11011 7
#380000
0"
0)
02
#385000
1"
1)
12
b11100 7
#390000
0"
0)
02
#395000
1"
1)
12
b11101 7
#400000
0"
0)
02
#405000
1"
1)
12
b11110 7
#410000
0"
0)
02
#415000
1"
1)
12
b11111 7
#420000
0"
0)
02
#425000
1"
1)
12
b100000 7
#430000
0"
0)
02
#435000
1"
1)
12
b100001 7
#440000
0"
0)
02
#445000
1"
1)
12
b100010 7
#450000
0"
0)
02
#455000
1"
1)
12
b100011 7
#460000
0"
0)
02
#465000
1"
1)
12
b100100 7
#470000
0"
0)
02
#475000
1"
1)
12
b100101 7
#480000
0"
0)
02
#485000
1"
1)
12
b100110 7
#490000
0"
0)
02
#495000
1"
1)
12
b100111 7
#500000
0"
0)
02
#505000
1"
1)
12
b101000 7
#510000
0"
0)
02
#515000
1"
1)
12
b101001 7
#520000
0"
0)
02
#525000
1"
1)
12
b101010 7
#530000
0"
0)
02
#535000
1"
1)
12
b101011 7
#540000
0"
0)
02
#545000
1"
1)
12
b101100 7
#550000
0"
0)
02
#555000
1"
1)
12
b101101 7
#560000
0"
0)
02
#565000
1"
1)
12
b101110 7
#570000
0"
0)
02
#575000
1"
1)
12
b101111 7
#580000
0"
0)
02
#585000
1"
1)
12
b110000 7
#590000
0"
0)
02
#595000
1"
1)
12
b110001 7
#600000
0"
0)
02
#605000
1"
1)
12
b110010 7
#610000
0"
0)
02
#615000
1"
1)
12
b110011 7
#620000
0"
0)
02
#625000
1"
1)
12
b110100 7
#630000
0"
0)
02
#635000
1"
1)
12
b110101 7
#640000
0"
0)
02
#645000
1"
1)
12
b110110 7
#650000
0"
0)
02
#655000
1"
1)
12
b110111 7
#660000
0"
0)
02
#665000
1"
1)
12
b111000 7
#670000
0"
0)
02
#675000
1"
1)
12
b111001 7
#680000
0"
0)
02
#685000
1"
1)
12
b111010 7
#690000
0"
0)
02
#695000
1"
1)
12
b111011 7
#700000
0"
0)
02
#705000
1"
1)
12
b111100 7
#710000
0"
0)
02
#715000
1"
1)
12
b111101 7
#720000
0"
0)
02
#725000
1"
1)
12
b111110 7
#730000
0"
0)
02
#735000
1"
1)
12
b111111 7
#740000
0"
0)
02
#745000
1"
1)
12
b1000000 7
#750000
0"
0)
02
#755000
1"
1)
12
b1000001 7
#760000
0"
0)
02
#765000
1"
1)
12
b1000010 7
#770000
0"
0)
02
#775000
1"
1)
12
b1000011 7
#780000
0"
0)
02
#785000
1"
1)
12
b1000100 7
#790000
0"
0)
02
#795000
1"
1)
12
b1000101 7
#800000
0"
0)
02
#805000
1"
1)
12
b1000110 7
#810000
0"
0)
02
#815000
1"
1)
12
b1000111 7
#820000
0"
0)
02
#825000
1"
1)
12
b1001000 7
#830000
0"
0)
02
#835000
1"
1)
12
b1001001 7
#840000
0"
0)
02
#845000
1"
1)
12
b1001010 7
#850000
0"
0)
02
#855000
1"
1)
12
b1001011 7
#860000
0"
0)
02
#865000
1"
1)
12
b1001100 7
#870000
0"
0)
02
#875000
1"
1)
12
b1001101 7
#880000
0"
0)
02
#885000
1"
1)
12
b1001110 7
#890000
0"
0)
02
#895000
1"
1)
12
b1001111 7
#900000
0"
0)
02
#905000
1"
1)
12
b1010000 7
#910000
0"
0)
02
#915000
1"
1)
12
b1010001 7
#920000
0"
0)
02
#925000
1"
1)
12
b1010010 7
#930000
0"
0)
02
#935000
1"
1)
12
b1010011 7
#940000
0"
0)
02
#945000
1"
1)
12
b1010100 7
#950000
0"
0)
02
#955000
1"
1)
12
b1010101 7
#960000
0"
0)
02
#965000
1"
1)
12
b1010110 7
#970000
0"
0)
02
#975000
1"
1)
12
b1010111 7
#980000
0"
0)
02
#985000
1"
1)
12
b1011000 7
#990000
0"
0)
02
#995000
1"
1)
12
b1011001 7
#1000000
0"
0)
02
#1005000
1"
1)
12
b1011010 7
#1010000
0"
0)
02
#1015000
1"
1)
12
b1011011 7
#1020000
0"
0)
02
#1025000
1"
1)
12
b1011100 7
#1030000
0"
0)
02
#1035000
1"
1)
12
b1011101 7
#1040000
0"
0)
02
#1045000
1"
1)
12
b1011110 7
#1050000
0"
0)
02
#1055000
1"
1)
12
b1011111 7
#1060000
0"
0)
02
#1065000
1"
1)
12
b1100000 7
#1070000
0"
0)
02
#1075000
1"
1)
12
b1100001 7
#1080000
0"
0)
02
#1085000
1"
1)
12
b1100010 7
#1090000
0"
0)
02
#1095000
1"
1)
12
b1100011 7
#1100000
0"
0)
02
#1105000
1"
1)
12
b1100100 7
#1110000
0"
0)
02
#1115000
1"
1)
12
b1100101 7
#1120000
0"
0)
02
#1125000
1"
1)
12
b1100110 7
#1130000
0"
0)
02
#1135000
1"
1)
12
b1100111 7
b10 9
#1140000
0"
0)
02
#1145000
1"
1)
12
b10 8
b0 7
b1000001 5
11
#1150000
1&
b1 '
0"
0)
02
b10 #
#1155000
1"
1)
12
b1 7
#1160000
0"
0)
02
#1165000
1"
1)
12
b10 7
#1170000
0"
0)
02
#1175000
1"
1)
12
b11 7
#1180000
0"
0)
02
#1185000
1"
1)
12
b100 7
#1190000
0"
0)
02
#1195000
1"
1)
12
b101 7
#1200000
0"
0)
02
#1205000
1"
1)
12
b110 7
#1210000
0"
0)
02
#1215000
1"
1)
12
b111 7
#1220000
0"
0)
02
#1225000
1"
1)
12
b1000 7
#1230000
0"
0)
02
#1235000
1"
1)
12
b1001 7
#1240000
0"
0)
02
#1245000
1"
1)
12
b1010 7
#1250000
0"
0)
02
#1255000
1"
1)
12
b1011 7
#1260000
0"
0)
02
#1265000
1"
1)
12
b1100 7
#1270000
0"
0)
02
#1275000
1"
1)
12
b1101 7
#1280000
0"
0)
02
#1285000
1"
1)
12
b1110 7
#1290000
0"
0)
02
#1295000
1"
1)
12
b1111 7
#1300000
0"
0)
02
#1305000
1"
1)
12
b10000 7
#1310000
0"
0)
02
#1315000
1"
1)
12
b10001 7
#1320000
0"
0)
02
#1325000
1"
1)
12
b10010 7
#1330000
0"
0)
02
#1335000
1"
1)
12
b10011 7
#1340000
0"
0)
02
#1345000
1"
1)
12
b10100 7
#1350000
0"
0)
02
#1355000
1"
1)
12
b10101 7
#1360000
0"
0)
02
#1365000
1"
1)
12
b10110 7
#1370000
0"
0)
02
#1375000
1"
1)
12
b10111 7
#1380000
0"
0)
02
#1385000
1"
1)
12
b11000 7
#1390000
0"
0)
02
#1395000
1"
1)
12
b11001 7
#1400000
0"
0)
02
#1405000
1"
1)
12
b11010 7
#1410000
0"
0)
02
#1415000
1"
1)
12
b11011 7
#1420000
0"
0)
02
#1425000
1"
1)
12
b11100 7
#1430000
0"
0)
02
#1435000
1"
1)
12
b11101 7
#1440000
0"
0)
02
#1445000
1"
1)
12
b11110 7
#1450000
0"
0)
02
#1455000
1"
1)
12
b11111 7
#1460000
0"
0)
02
#1465000
1"
1)
12
b100000 7
#1470000
0"
0)
02
#1475000
1"
1)
12
b100001 7
#1480000
0"
0)
02
#1485000
1"
1)
12
b100010 7
#1490000
0"
0)
02
#1495000
1"
1)
12
b100011 7
#1500000
0"
0)
02
#1505000
1"
1)
12
b100100 7
#1510000
0"
0)
02
#1515000
1"
1)
12
b100101 7
#1520000
0"
0)
02
#1525000
1"
1)
12
b100110 7
#1530000
0"
0)
02
#1535000
1"
1)
12
b100111 7
#1540000
0"
0)
02
#1545000
1"
1)
12
b101000 7
#1550000
0"
0)
02
#1555000
1"
1)
12
b101001 7
#1560000
0"
0)
02
#1565000
1"
1)
12
b101010 7
#1570000
0"
0)
02
#1575000
1"
1)
12
b101011 7
#1580000
0"
0)
02
#1585000
1"
1)
12
b101100 7
#1590000
0"
0)
02
#1595000
1"
1)
12
b101101 7
#1600000
0"
0)
02
#1605000
1"
1)
12
b101110 7
#1610000
0"
0)
02
#1615000
1"
1)
12
b101111 7
#1620000
0"
0)
02
#1625000
1"
1)
12
b110000 7
#1630000
0"
0)
02
#1635000
1"
1)
12
b110001 7
#1640000
0"
0)
02
#1645000
1"
1)
12
b110010 7
#1650000
0"
0)
02
#1655000
1"
1)
12
b110011 7
#1660000
0"
0)
02
#1665000
1"
1)
12
b110100 7
#1670000
0"
0)
02
#1675000
1"
1)
12
b110101 7
#1680000
0"
0)
02
#1685000
1"
1)
12
b110110 7
#1690000
0"
0)
02
#1695000
1"
1)
12
b110111 7
#1700000
0"
0)
02
#1705000
1"
1)
12
b111000 7
#1710000
0"
0)
02
#1715000
1"
1)
12
b111001 7
#1720000
0"
0)
02
#1725000
1"
1)
12
b111010 7
#1730000
0"
0)
02
#1735000
1"
1)
12
b111011 7
#1740000
0"
0)
02
#1745000
1"
1)
12
b111100 7
#1750000
0"
0)
02
#1755000
1"
1)
12
b111101 7
#1760000
0"
0)
02
#1765000
1"
1)
12
b111110 7
#1770000
0"
0)
02
#1775000
1"
1)
12
b111111 7
#1780000
0"
0)
02
#1785000
1"
1)
12
b1000000 7
#1790000
0"
0)
02
#1795000
1"
1)
12
b1000001 7
#1800000
0"
0)
02
#1805000
1"
1)
12
b1000010 7
#1810000
0"
0)
02
#1815000
1"
1)
12
b1000011 7
#1820000
0"
0)
02
#1825000
1"
1)
12
b1000100 7
#1830000
0"
0)
02
#1835000
1"
1)
12
b1000101 7
#1840000
0"
0)
02
#1845000
1"
1)
12
b1000110 7
#1850000
0"
0)
02
#1855000
1"
1)
12
b1000111 7
#1860000
0"
0)
02
#1865000
1"
1)
12
b1001000 7
#1870000
0"
0)
02
#1875000
1"
1)
12
b1001001 7
#1880000
0"
0)
02
#1885000
1"
1)
12
b1001010 7
#1890000
0"
0)
02
#1895000
1"
1)
12
b1001011 7
#1900000
0"
0)
02
#1905000
1"
1)
12
b1001100 7
#1910000
0"
0)
02
#1915000
1"
1)
12
b1001101 7
#1920000
0"
0)
02
#1925000
1"
1)
12
b1001110 7
#1930000
0"
0)
02
#1935000
1"
1)
12
b1001111 7
#1940000
0"
0)
02
#1945000
1"
1)
12
b1010000 7
#1950000
0"
0)
02
#1955000
1"
1)
12
b1010001 7
#1960000
0"
0)
02
#1965000
1"
1)
12
b1010010 7
#1970000
0"
0)
02
#1975000
1"
1)
12
b1010011 7
#1980000
0"
0)
02
#1985000
1"
1)
12
b1010100 7
#1990000
0"
0)
02
#1995000
1"
1)
12
b1010101 7
#2000000
0"
0)
02
#2005000
1"
1)
12
b1010110 7
#2010000
0"
0)
02
#2015000
1"
1)
12
b1010111 7
#2020000
0"
0)
02
#2025000
1"
1)
12
b1011000 7
#2030000
0"
0)
02
#2035000
1"
1)
12
b1011001 7
#2040000
0"
0)
02
#2045000
1"
1)
12
b1011010 7
#2050000
0"
0)
02
#2055000
1"
1)
12
b1011011 7
#2060000
0"
0)
02
#2065000
1"
1)
12
b1011100 7
#2070000
0"
0)
02
#2075000
1"
1)
12
b1011101 7
#2080000
0"
0)
02
#2085000
1"
1)
12
b1011110 7
#2090000
0"
0)
02
#2095000
1"
1)
12
b1011111 7
#2100000
0"
0)
02
#2105000
1"
1)
12
b1100000 7
#2110000
0"
0)
02
#2115000
1"
1)
12
b1100001 7
#2120000
0"
0)
02
#2125000
1"
1)
12
b1100010 7
#2130000
0"
0)
02
#2135000
1"
1)
12
b1100011 7
#2140000
0"
0)
02
#2145000
1"
1)
12
b1100100 7
#2150000
0"
0)
02
#2155000
1"
1)
12
b1100101 7
#2160000
0"
0)
02
#2165000
1"
1)
12
b1100110 7
#2170000
0"
0)
02
#2175000
1"
1)
12
b1100111 7
#2180000
0"
0)
02
#2185000
1"
1)
12
b0 7
b1 6
01
#2190000
0&
b10 '
0"
0)
02
b11 #
#2195000
1"
1)
12
b1 7
#2200000
0"
0)
02
#2205000
1"
1)
12
b10 7
#2210000
0"
0)
02
#2215000
1"
1)
12
b11 7
#2220000
0"
0)
02
#2225000
1"
1)
12
b100 7
#2230000
0"
0)
02
#2235000
1"
1)
12
b101 7
#2240000
0"
0)
02
#2245000
1"
1)
12
b110 7
#2250000
0"
0)
02
#2255000
1"
1)
12
b111 7
#2260000
0"
0)
02
#2265000
1"
1)
12
b1000 7
#2270000
0"
0)
02
#2275000
1"
1)
12
b1001 7
#2280000
0"
0)
02
#2285000
1"
1)
12
b1010 7
#2290000
0"
0)
02
#2295000
1"
1)
12
b1011 7
#2300000
0"
0)
02
#2305000
1"
1)
12
b1100 7
#2310000
0"
0)
02
#2315000
1"
1)
12
b1101 7
#2320000
0"
0)
02
#2325000
1"
1)
12
b1110 7
#2330000
0"
0)
02
#2335000
1"
1)
12
b1111 7
#2340000
0"
0)
02
#2345000
1"
1)
12
b10000 7
#2350000
0"
0)
02
#2355000
1"
1)
12
b10001 7
#2360000
0"
0)
02
#2365000
1"
1)
12
b10010 7
#2370000
0"
0)
02
#2375000
1"
1)
12
b10011 7
#2380000
0"
0)
02
#2385000
1"
1)
12
b10100 7
#2390000
0"
0)
02
#2395000
1"
1)
12
b10101 7
#2400000
0"
0)
02
#2405000
1"
1)
12
b10110 7
#2410000
0"
0)
02
#2415000
1"
1)
12
b10111 7
#2420000
0"
0)
02
#2425000
1"
1)
12
b11000 7
#2430000
0"
0)
02
#2435000
1"
1)
12
b11001 7
#2440000
0"
0)
02
#2445000
1"
1)
12
b11010 7
#2450000
0"
0)
02
#2455000
1"
1)
12
b11011 7
#2460000
0"
0)
02
#2465000
1"
1)
12
b11100 7
#2470000
0"
0)
02
#2475000
1"
1)
12
b11101 7
#2480000
0"
0)
02
#2485000
1"
1)
12
b11110 7
#2490000
0"
0)
02
#2495000
1"
1)
12
b11111 7
#2500000
0"
0)
02
#2505000
1"
1)
12
b100000 7
#2510000
0"
0)
02
#2515000
1"
1)
12
b100001 7
#2520000
0"
0)
02
#2525000
1"
1)
12
b100010 7
#2530000
0"
0)
02
#2535000
1"
1)
12
b100011 7
#2540000
0"
0)
02
#2545000
1"
1)
12
b100100 7
#2550000
0"
0)
02
#2555000
1"
1)
12
b100101 7
#2560000
0"
0)
02
#2565000
1"
1)
12
b100110 7
#2570000
0"
0)
02
#2575000
1"
1)
12
b100111 7
#2580000
0"
0)
02
#2585000
1"
1)
12
b101000 7
#2590000
0"
0)
02
#2595000
1"
1)
12
b101001 7
#2600000
0"
0)
02
#2605000
1"
1)
12
b101010 7
#2610000
0"
0)
02
#2615000
1"
1)
12
b101011 7
#2620000
0"
0)
02
#2625000
1"
1)
12
b101100 7
#2630000
0"
0)
02
#2635000
1"
1)
12
b101101 7
#2640000
0"
0)
02
#2645000
1"
1)
12
b101110 7
#2650000
0"
0)
02
#2655000
1"
1)
12
b101111 7
#2660000
0"
0)
02
#2665000
1"
1)
12
b110000 7
#2670000
0"
0)
02
#2675000
1"
1)
12
b110001 7
#2680000
0"
0)
02
#2685000
1"
1)
12
b110010 7
#2690000
0"
0)
02
#2695000
1"
1)
12
b110011 7
#2700000
0"
0)
02
#2705000
1"
1)
12
b110100 7
#2710000
0"
0)
02
#2715000
1"
1)
12
b110101 7
#2720000
0"
0)
02
#2725000
1"
1)
12
b110110 7
#2730000
0"
0)
02
#2735000
1"
1)
12
b110111 7
#2740000
0"
0)
02
#2745000
1"
1)
12
b111000 7
#2750000
0"
0)
02
#2755000
1"
1)
12
b111001 7
#2760000
0"
0)
02
#2765000
1"
1)
12
b111010 7
#2770000
0"
0)
02
#2775000
1"
1)
12
b111011 7
#2780000
0"
0)
02
#2785000
1"
1)
12
b111100 7
#2790000
0"
0)
02
#2795000
1"
1)
12
b111101 7
#2800000
0"
0)
02
#2805000
1"
1)
12
b111110 7
#2810000
0"
0)
02
#2815000
1"
1)
12
b111111 7
#2820000
0"
0)
02
#2825000
1"
1)
12
b1000000 7
#2830000
0"
0)
02
#2835000
1"
1)
12
b1000001 7
#2840000
0"
0)
02
#2845000
1"
1)
12
b1000010 7
#2850000
0"
0)
02
#2855000
1"
1)
12
b1000011 7
#2860000
0"
0)
02
#2865000
1"
1)
12
b1000100 7
#2870000
0"
0)
02
#2875000
1"
1)
12
b1000101 7
#2880000
0"
0)
02
#2885000
1"
1)
12
b1000110 7
#2890000
0"
0)
02
#2895000
1"
1)
12
b1000111 7
#2900000
0"
0)
02
#2905000
1"
1)
12
b1001000 7
#2910000
0"
0)
02
#2915000
1"
1)
12
b1001001 7
#2920000
0"
0)
02
#2925000
1"
1)
12
b1001010 7
#2930000
0"
0)
02
#2935000
1"
1)
12
b1001011 7
#2940000
0"
0)
02
#2945000
1"
1)
12
b1001100 7
#2950000
0"
0)
02
#2955000
1"
1)
12
b1001101 7
#2960000
0"
0)
02
#2965000
1"
1)
12
b1001110 7
#2970000
0"
0)
02
#2975000
1"
1)
12
b1001111 7
#2980000
0"
0)
02
#2985000
1"
1)
12
b1010000 7
#2990000
0"
0)
02
#2995000
1"
1)
12
b1010001 7
#3000000
0"
0)
02
#3005000
1"
1)
12
b1010010 7
#3010000
0"
0)
02
#3015000
1"
1)
12
b1010011 7
#3020000
0"
0)
02
#3025000
1"
1)
12
b1010100 7
#3030000
0"
0)
02
#3035000
1"
1)
12
b1010101 7
#3040000
0"
0)
02
#3045000
1"
1)
12
b1010110 7
#3050000
0"
0)
02
#3055000
1"
1)
12
b1010111 7
#3060000
0"
0)
02
#3065000
1"
1)
12
b1011000 7
#3070000
0"
0)
02
#3075000
1"
1)
12
b1011001 7
#3080000
0"
0)
02
#3085000
1"
1)
12
b1011010 7
#3090000
0"
0)
02
#3095000
1"
1)
12
b1011011 7
#3100000
0"
0)
02
#3105000
1"
1)
12
b1011100 7
#3110000
0"
0)
02
#3115000
1"
1)
12
b1011101 7
#3120000
0"
0)
02
#3125000
1"
1)
12
b1011110 7
#3130000
0"
0)
02
#3135000
1"
1)
12
b1011111 7
#3140000
0"
0)
02
#3145000
1"
1)
12
b1100000 7
#3150000
0"
0)
02
#3155000
1"
1)
12
b1100001 7
#3160000
0"
0)
02
#3165000
1"
1)
12
b1100010 7
#3170000
0"
0)
02
#3175000
1"
1)
12
b1100011 7
#3180000
0"
0)
02
#3185000
1"
1)
12
b1100100 7
#3190000
0"
0)
02
#3195000
1"
1)
12
b1100101 7
#3200000
0"
0)
02
#3205000
1"
1)
12
b1100110 7
#3210000
0"
0)
02
#3215000
1"
1)
12
b1100111 7
#3220000
0"
0)
02
#3225000
1"
1)
12
b0 7
b10 6
#3230000
b11 '
0"
0)
02
b100 #
#3235000
1"
1)
12
b1 7
#3240000
0"
0)
02
#3245000
1"
1)
12
b10 7
#3250000
0"
0)
02
#3255000
1"
1)
12
b11 7
#3260000
0"
0)
02
#3265000
1"
1)
12
b100 7
#3270000
0"
0)
02
#3275000
1"
1)
12
b101 7
#3280000
0"
0)
02
#3285000
1"
1)
12
b110 7
#3290000
0"
0)
02
#3295000
1"
1)
12
b111 7
#3300000
0"
0)
02
#3305000
1"
1)
12
b1000 7
#3310000
0"
0)
02
#3315000
1"
1)
12
b1001 7
#3320000
0"
0)
02
#3325000
1"
1)
12
b1010 7
#3330000
0"
0)
02
#3335000
1"
1)
12
b1011 7
#3340000
0"
0)
02
#3345000
1"
1)
12
b1100 7
#3350000
0"
0)
02
#3355000
1"
1)
12
b1101 7
#3360000
0"
0)
02
#3365000
1"
1)
12
b1110 7
#3370000
0"
0)
02
#3375000
1"
1)
12
b1111 7
#3380000
0"
0)
02
#3385000
1"
1)
12
b10000 7
#3390000
0"
0)
02
#3395000
1"
1)
12
b10001 7
#3400000
0"
0)
02
#3405000
1"
1)
12
b10010 7
#3410000
0"
0)
02
#3415000
1"
1)
12
b10011 7
#3420000
0"
0)
02
#3425000
1"
1)
12
b10100 7
#3430000
0"
0)
02
#3435000
1"
1)
12
b10101 7
#3440000
0"
0)
02
#3445000
1"
1)
12
b10110 7
#3450000
0"
0)
02
#3455000
1"
1)
12
b10111 7
#3460000
0"
0)
02
#3465000
1"
1)
12
b11000 7
#3470000
0"
0)
02
#3475000
1"
1)
12
b11001 7
#3480000
0"
0)
02
#3485000
1"
1)
12
b11010 7
#3490000
0"
0)
02
#3495000
1"
1)
12
b11011 7
#3500000
0"
0)
02
#3505000
1"
1)
12
b11100 7
#3510000
0"
0)
02
#3515000
1"
1)
12
b11101 7
#3520000
0"
0)
02
#3525000
1"
1)
12
b11110 7
#3530000
0"
0)
02
#3535000
1"
1)
12
b11111 7
#3540000
0"
0)
02
#3545000
1"
1)
12
b100000 7
#3550000
0"
0)
02
#3555000
1"
1)
12
b100001 7
#3560000
0"
0)
02
#3565000
1"
1)
12
b100010 7
#3570000
0"
0)
02
#3575000
1"
1)
12
b100011 7
#3580000
0"
0)
02
#3585000
1"
1)
12
b100100 7
#3590000
0"
0)
02
#3595000
1"
1)
12
b100101 7
#3600000
0"
0)
02
#3605000
1"
1)
12
b100110 7
#3610000
0"
0)
02
#3615000
1"
1)
12
b100111 7
#3620000
0"
0)
02
#3625000
1"
1)
12
b101000 7
#3630000
0"
0)
02
#3635000
1"
1)
12
b101001 7
#3640000
0"
0)
02
#3645000
1"
1)
12
b101010 7
#3650000
0"
0)
02
#3655000
1"
1)
12
b101011 7
#3660000
0"
0)
02
#3665000
1"
1)
12
b101100 7
#3670000
0"
0)
02
#3675000
1"
1)
12
b101101 7
#3680000
0"
0)
02
#3685000
1"
1)
12
b101110 7
#3690000
0"
0)
02
#3695000
1"
1)
12
b101111 7
#3700000
0"
0)
02
#3705000
1"
1)
12
b110000 7
#3710000
0"
0)
02
#3715000
1"
1)
12
b110001 7
#3720000
0"
0)
02
#3725000
1"
1)
12
b110010 7
#3730000
0"
0)
02
#3735000
1"
1)
12
b110011 7
#3740000
0"
0)
02
#3745000
1"
1)
12
b110100 7
#3750000
0"
0)
02
#3755000
1"
1)
12
b110101 7
#3760000
0"
0)
02
#3765000
1"
1)
12
b110110 7
#3770000
0"
0)
02
#3775000
1"
1)
12
b110111 7
#3780000
0"
0)
02
#3785000
1"
1)
12
b111000 7
#3790000
0"
0)
02
#3795000
1"
1)
12
b111001 7
#3800000
0"
0)
02
#3805000
1"
1)
12
b111010 7
#3810000
0"
0)
02
#3815000
1"
1)
12
b111011 7
#3820000
0"
0)
02
#3825000
1"
1)
12
b111100 7
#3830000
0"
0)
02
#3835000
1"
1)
12
b111101 7
#3840000
0"
0)
02
#3845000
1"
1)
12
b111110 7
#3850000
0"
0)
02
#3855000
1"
1)
12
b111111 7
#3860000
0"
0)
02
#3865000
1"
1)
12
b1000000 7
#3870000
0"
0)
02
#3875000
1"
1)
12
b1000001 7
#3880000
0"
0)
02
#3885000
1"
1)
12
b1000010 7
#3890000
0"
0)
02
#3895000
1"
1)
12
b1000011 7
#3900000
0"
0)
02
#3905000
1"
1)
12
b1000100 7
#3910000
0"
0)
02
#3915000
1"
1)
12
b1000101 7
#3920000
0"
0)
02
#3925000
1"
1)
12
b1000110 7
#3930000
0"
0)
02
#3935000
1"
1)
12
b1000111 7
#3940000
0"
0)
02
#3945000
1"
1)
12
b1001000 7
#3950000
0"
0)
02
#3955000
1"
1)
12
b1001001 7
#3960000
0"
0)
02
#3965000
1"
1)
12
b1001010 7
#3970000
0"
0)
02
#3975000
1"
1)
12
b1001011 7
#3980000
0"
0)
02
#3985000
1"
1)
12
b1001100 7
#3990000
0"
0)
02
#3995000
1"
1)
12
b1001101 7
#4000000
0"
0)
02
#4005000
1"
1)
12
b1001110 7
#4010000
0"
0)
02
#4015000
1"
1)
12
b1001111 7
#4020000
0"
0)
02
#4025000
1"
1)
12
b1010000 7
#4030000
0"
0)
02
#4035000
1"
1)
12
b1010001 7
#4040000
0"
0)
02
#4045000
1"
1)
12
b1010010 7
#4050000
0"
0)
02
#4055000
1"
1)
12
b1010011 7
#4060000
0"
0)
02
#4065000
1"
1)
12
b1010100 7
#4070000
0"
0)
02
#4075000
1"
1)
12
b1010101 7
#4080000
0"
0)
02
#4085000
1"
1)
12
b1010110 7
#4090000
0"
0)
02
#4095000
1"
1)
12
b1010111 7
#4100000
0"
0)
02
#4105000
1"
1)
12
b1011000 7
#4110000
0"
0)
02
#4115000
1"
1)
12
b1011001 7
#4120000
0"
0)
02
#4125000
1"
1)
12
b1011010 7
#4130000
0"
0)
02
#4135000
1"
1)
12
b1011011 7
#4140000
0"
0)
02
#4145000
1"
1)
12
b1011100 7
#4150000
0"
0)
02
#4155000
1"
1)
12
b1011101 7
#4160000
0"
0)
02
#4165000
1"
1)
12
b1011110 7
#4170000
0"
0)
02
#4175000
1"
1)
12
b1011111 7
#4180000
0"
0)
02
